\relax 
\providecommand\hyper@newdestlabel[2]{}
\providecommand\HyperFirstAtBeginDocument{\AtBeginDocument}
\HyperFirstAtBeginDocument{\ifx\hyper@anchor\@undefined
\global\let\oldcontentsline\contentsline
\gdef\contentsline#1#2#3#4{\oldcontentsline{#1}{#2}{#3}}
\global\let\oldnewlabel\newlabel
\gdef\newlabel#1#2{\newlabelxx{#1}#2}
\gdef\newlabelxx#1#2#3#4#5#6{\oldnewlabel{#1}{{#2}{#3}}}
\AtEndDocument{\ifx\hyper@anchor\@undefined
\let\contentsline\oldcontentsline
\let\newlabel\oldnewlabel
\fi}
\fi}
\global\let\hyper@last\relax 
\gdef\HyperFirstAtBeginDocument#1{#1}
\providecommand*\HyPL@Entry[1]{}
\HyPL@Entry{0<</P(0)>>}
\select@language{english}
\@writefile{toc}{\select@language{english}}
\@writefile{lof}{\select@language{english}}
\@writefile{lot}{\select@language{english}}
\@writefile{nav}{\headcommand {\slideentry {0}{0}{1}{1/1}{}{0}}}
\@writefile{nav}{\headcommand {\beamer@framepages {1}{1}}}
\HyPL@Entry{1<</P(1)>>}
\@writefile{nav}{\headcommand {\slideentry {0}{0}{2}{2/2}{}{0}}}
\@writefile{nav}{\headcommand {\beamer@framepages {2}{2}}}
\@writefile{toc}{\beamer@sectionintoc {1}{What is machine learning?}{3}{0}{1}}
\@writefile{nav}{\headcommand {\sectionentry {1}{What is machine learning?}{3}{What is machine learning?}{0}}}
\@writefile{nav}{\headcommand {\beamer@sectionpages {1}{2}}}
\@writefile{nav}{\headcommand {\beamer@subsectionpages {1}{2}}}
\@writefile{nav}{\headcommand {\slideentry {1}{0}{1}{3/3}{}{0}}}
\@writefile{nav}{\headcommand {\beamer@framepages {3}{3}}}
\HyPL@Entry{3<</P(2)>>}
\@writefile{nav}{\headcommand {\slideentry {1}{0}{2}{4/4}{}{0}}}
\@writefile{nav}{\headcommand {\beamer@framepages {4}{4}}}
\HyPL@Entry{4<</P(3)>>}
\@writefile{nav}{\headcommand {\slideentry {1}{0}{3}{5/5}{}{0}}}
\@writefile{nav}{\headcommand {\beamer@framepages {5}{5}}}
\HyPL@Entry{5<</P(4)>>}
\@writefile{nav}{\headcommand {\slideentry {1}{0}{4}{6/9}{}{0}}}
\@writefile{nav}{\headcommand {\beamer@framepages {6}{9}}}
\HyPL@Entry{9<</P(5)>>}
\@writefile{nav}{\headcommand {\slideentry {1}{0}{5}{10/10}{}{0}}}
\@writefile{nav}{\headcommand {\beamer@framepages {10}{10}}}
\HyPL@Entry{10<</P(6)>>}
\@writefile{nav}{\headcommand {\slideentry {1}{0}{6}{11/12}{}{0}}}
\@writefile{nav}{\headcommand {\beamer@framepages {11}{12}}}
\bibcite{A}{\hyperlink {beamerbibA}{1}}
\bibcite{B}{\hyperlink {beamerbibB}{2}}
\bibcite{C}{\hyperlink {beamerbibC}{3}}
\bibcite{D}{\hyperlink {beamerbibD}{3}}
\bibcite{E}{\hyperlink {beamerbibE}{4}}
\bibcite{F}{\hyperlink {beamerbibF}{5}}
\HyPL@Entry{12<</P(7)>>}
\@writefile{nav}{\headcommand {\slideentry {1}{0}{7}{13/13}{}{0}}}
\@writefile{nav}{\headcommand {\beamer@framepages {13}{13}}}
\@writefile{toc}{\beamer@sectionintoc {2}{Examples}{14}{0}{2}}
\@writefile{nav}{\headcommand {\sectionentry {2}{Examples}{14}{Examples}{0}}}
\@writefile{nav}{\headcommand {\beamer@sectionpages {3}{13}}}
\@writefile{nav}{\headcommand {\beamer@subsectionpages {3}{13}}}
\@writefile{nav}{\headcommand {\slideentry {2}{0}{1}{14/14}{}{0}}}
\@writefile{nav}{\headcommand {\beamer@framepages {14}{14}}}
\HyPL@Entry{14<</P(8)>>}
\@writefile{nav}{\headcommand {\slideentry {2}{0}{2}{15/15}{}{0}}}
\@writefile{nav}{\headcommand {\beamer@framepages {15}{15}}}
\HyPL@Entry{15<</P(9)>>}
\@writefile{nav}{\headcommand {\slideentry {2}{0}{3}{16/16}{}{0}}}
\@writefile{nav}{\headcommand {\beamer@framepages {16}{16}}}
\HyPL@Entry{16<</P(10)>>}
\@writefile{nav}{\headcommand {\slideentry {2}{0}{4}{17/17}{}{0}}}
\@writefile{nav}{\headcommand {\beamer@framepages {17}{17}}}
\HyPL@Entry{17<</P(11)>>}
\@writefile{nav}{\headcommand {\slideentry {2}{0}{5}{18/18}{}{0}}}
\@writefile{nav}{\headcommand {\beamer@framepages {18}{18}}}
\HyPL@Entry{18<</P(12)>>}
\@writefile{nav}{\headcommand {\slideentry {2}{0}{6}{19/19}{}{0}}}
\@writefile{nav}{\headcommand {\beamer@framepages {19}{19}}}
\HyPL@Entry{19<</P(13)>>}
\@writefile{nav}{\headcommand {\slideentry {2}{0}{7}{20/20}{}{0}}}
\@writefile{nav}{\headcommand {\beamer@framepages {20}{20}}}
\HyPL@Entry{20<</P(14)>>}
\@writefile{nav}{\headcommand {\slideentry {2}{0}{8}{21/21}{}{0}}}
\@writefile{nav}{\headcommand {\beamer@framepages {21}{21}}}
\@writefile{toc}{\beamer@sectionintoc {3}{Basics}{22}{0}{3}}
\@writefile{nav}{\headcommand {\sectionentry {3}{Basics}{22}{Basics}{0}}}
\@writefile{nav}{\headcommand {\beamer@sectionpages {14}{21}}}
\@writefile{nav}{\headcommand {\beamer@subsectionpages {14}{21}}}
\@writefile{nav}{\headcommand {\slideentry {3}{0}{1}{22/22}{}{0}}}
\@writefile{nav}{\headcommand {\beamer@framepages {22}{22}}}
\HyPL@Entry{22<</P(15)>>}
\@writefile{nav}{\headcommand {\slideentry {3}{0}{2}{23/23}{}{0}}}
\@writefile{nav}{\headcommand {\beamer@framepages {23}{23}}}
\HyPL@Entry{23<</P(16)>>}
\@writefile{nav}{\headcommand {\slideentry {3}{0}{3}{24/24}{}{0}}}
\@writefile{nav}{\headcommand {\beamer@framepages {24}{24}}}
\HyPL@Entry{24<</P(17)>>}
\@writefile{nav}{\headcommand {\slideentry {3}{0}{4}{25/25}{}{0}}}
\@writefile{nav}{\headcommand {\beamer@framepages {25}{25}}}
\@writefile{toc}{\beamer@sectionintoc {4}{Toy Example}{26}{0}{4}}
\@writefile{nav}{\headcommand {\sectionentry {4}{Toy Example}{26}{Toy Example}{0}}}
\@writefile{nav}{\headcommand {\beamer@sectionpages {22}{25}}}
\@writefile{nav}{\headcommand {\beamer@subsectionpages {22}{25}}}
\@writefile{nav}{\headcommand {\slideentry {4}{0}{1}{26/26}{}{0}}}
\@writefile{nav}{\headcommand {\beamer@framepages {26}{26}}}
\HyPL@Entry{26<</P(18)>>}
\@writefile{nav}{\headcommand {\slideentry {4}{0}{2}{27/27}{}{0}}}
\@writefile{nav}{\headcommand {\beamer@framepages {27}{27}}}
\HyPL@Entry{27<</P(19)>>}
\@writefile{nav}{\headcommand {\slideentry {4}{0}{3}{28/28}{}{0}}}
\@writefile{nav}{\headcommand {\beamer@framepages {28}{28}}}
\HyPL@Entry{28<</P(20)>>}
\@writefile{nav}{\headcommand {\slideentry {4}{0}{4}{29/29}{}{0}}}
\@writefile{nav}{\headcommand {\beamer@framepages {29}{29}}}
\HyPL@Entry{29<</P(21)>>}
\@writefile{nav}{\headcommand {\slideentry {4}{0}{5}{30/30}{}{0}}}
\@writefile{nav}{\headcommand {\beamer@framepages {30}{30}}}
\HyPL@Entry{30<</P(22)>>}
\@writefile{nav}{\headcommand {\slideentry {4}{0}{6}{31/31}{}{0}}}
\@writefile{nav}{\headcommand {\beamer@framepages {31}{31}}}
\HyPL@Entry{31<</P(23)>>}
\@writefile{nav}{\headcommand {\slideentry {4}{0}{7}{32/32}{}{0}}}
\@writefile{nav}{\headcommand {\beamer@framepages {32}{32}}}
\newlabel{conclusion<1>}{{23}{33}{Toy Example}{Doc-Start}{}}
\@writefile{snm}{\beamer@slide {conclusion<1>}{33}}
\newlabel{conclusion}{{23}{33}{Toy Example}{Doc-Start}{}}
\@writefile{snm}{\beamer@slide {conclusion}{33}}
\@writefile{nav}{\headcommand {\slideentry {4}{0}{8}{33/33}{}{0}}}
\@writefile{nav}{\headcommand {\beamer@framepages {33}{33}}}
